{
  "drivers" : [ {
    "displayName" : "Firefox",
    "browserName" : "firefox",
    "capabilities" : { }
  }, {
    "displayName" : "Edge",
    "browserName" : "edge",
    "capabilities" : { }
  }, {
    "displayName" : "Chrome",
    "browserName" : "chrome",
    "capabilities" : { }
  }, {
    "displayName" : "Headless Chrome",
    "browserName" : "chrome",
    "capabilities" : { },
    "arguments" : [ "--headless" ]
  } ]
}